Portfolio Analysis
…
`summarise()` has grouped output by 'symbol'. You can override using the
`.groups` argument.

# A tibble: 44 × 5
# Groups:   gics_sector [11]
   symbol gics_sector            avg_daily_return sd_daily_return sharpe_ratio
   <chr>  <chr>                             <dbl>           <dbl>        <dbl>
 1 META   Communication Services         0.00407           0.0260       0.157 
 2 NFLX   Communication Services         0.00249           0.0229       0.108 
 3 GOOG   Communication Services         0.00205           0.0191       0.108 
 4 GOOGL  Communication Services         0.00205           0.0191       0.107 
 5 CMG    Consumer Discretionary         0.00244           0.0157       0.155 
 6 RCL    Consumer Discretionary         0.00338           0.0221       0.153 
 7 PHM    Consumer Discretionary         0.00281           0.0187       0.150 
 8 DECK   Consumer Discretionary         0.00314           0.0221       0.142 
 9 COST   Consumer Staples               0.00183           0.0121       0.152 
10 WMT    Consumer Staples               0.000976          0.0101       0.0965
# ℹ 34 more rows
…
